…
However, in addition to dataset **cancer_sample**, I will explore
*apt_buildings, parking_meters, vancouver_trees* using dplyr attributes,
as follows.

``` r
### On cancer_sample dataset using functions filter(), select(), arrange() ###
filtered_cancer <- cancer_sample %>%
         filter(ID > 800000) %>%
  filter(ID < 80000000) %>%
         select(ID, radius_mean, area_mean, symmetry_mean) %>%
         arrange(desc(ID))
print(filtered_cancer, n = 10)
```

    ## # A tibble: 447 × 4
    ##         ID radius_mean area_mean symmetry_mean
    ##      <dbl>       <dbl>     <dbl>         <dbl>
    ##  1 9113846       12.3       465.         0.170
    ##  2 9113816       12.0       450.         0.185
    ##  3 9113778        9.67      289.         0.224
    ##  4 9113538       17.6       980.         0.170
    ##  5 9113514        9.67      286.         0.168
    ##  6 9113455       13.1       537.         0.156
    ##  7 9113239       13.2       543.         0.160
    ##  8 9113156       14.4       646.         0.171
    ##  9 9112712        9.76      291.         0.162
    ## 10 9112594       13         520.         0.167
    ## # ℹ 437 more rows
…
``` r
### On apt_buildings dataset using functions select(), arrange() ###
 apt_buildings %>%
 select(id, balconies, bike_parking, fire_alarm) %>%
   arrange(desc(id)) %>% 
   print(n = 5)
```

    ## # A tibble: 3,455 × 4
    ##      id balconies bike_parking  fire_alarm
    ##   <dbl> <chr>     <chr>         <chr>     
    ## 1 13813 YES       Not Available YES       
    ## 2 13812 YES       Not Available YES       
    ## 3 13811 YES       Not Available YES       
    ## 4 13810 YES       Not Available YES       
    ## 5 13809 YES       Not Available YES       
    ## # ℹ 3,450 more rows
…
``` r
### On vancouver_trees dataset using functions group_by(), arrange(), mutate(), select() ###
group_trees <-
  vancouver_trees %>%
  group_by(genus_name) %>%
  group_by(species_name) %>%
  group_by(common_name) %>%
  arrange(tree_id) %>%
  mutate(rel_blocks = on_street_block - first(on_street_block)) %>%
  select(tree_id, genus_name, species_name, common_name, rel_blocks)
print(head(group_trees, n = 25))
```

    ## # A tibble: 25 × 5
    ## # Groups:   common_name [3]
    ##    tree_id genus_name species_name common_name                 rel_blocks
    ##      <dbl> <chr>      <chr>        <chr>                            <dbl>
    ##  1      12 FAGUS      SYLVATICA    EUROPEAN BEECH                       0
    ##  2      22 CARPINUS   BETULUS      EUROPEAN HORNBEAM                    0
    ##  3      23 CARPINUS   BETULUS      PYRAMIDAL EUROPEAN HORNBEAM          0
    ##  4      24 CARPINUS   BETULUS      EUROPEAN HORNBEAM                    0
    ##  5      25 CARPINUS   BETULUS      PYRAMIDAL EUROPEAN HORNBEAM          0
    ##  6      26 CARPINUS   BETULUS      EUROPEAN HORNBEAM                    0
    ##  7      27 CARPINUS   BETULUS      PYRAMIDAL EUROPEAN HORNBEAM          0
    ##  8      28 CARPINUS   BETULUS      PYRAMIDAL EUROPEAN HORNBEAM          0
    ##  9      29 CARPINUS   BETULUS      EUROPEAN HORNBEAM                    0
    ## 10      31 CARPINUS   BETULUS      PYRAMIDAL EUROPEAN HORNBEAM          0
    ## # ℹ 15 more rows
…
2.  Create a new variable based on other variables in your data

``` r
# Creating new columns 'area_vs_radius' and 'compactness_vs_smoothness' with function mutate(), select()

cancer_mutate <- cancer_sample %>%
  mutate(area_vs_radius = area_mean / radius_mean) %>%
mutate(compactness_vs_smoothness = compactness_mean / smoothness_mean) %>%
 select(diagnosis, area_vs_radius, compactness_vs_smoothness)
print(cancer_mutate)
```

    ## # A tibble: 569 × 3
    ##    diagnosis area_vs_radius compactness_vs_smoothness
    ##    <chr>              <dbl>                     <dbl>
    ##  1 M                   55.6                     2.34 
    ##  2 M                   64.5                     0.928
    ##  3 M                   61.1                     1.46 
    ##  4 M                   33.8                     1.99 
    ##  5 M                   63.9                     1.32 
    ##  6 M                   38.3                     1.33 
    ##  7 M                   57.0                     1.15 
    ##  8 M                   42.2                     1.38 
    ##  9 M                   40.0                     1.52 
    ## 10 M                   38.2                     2.02 
    ## # ℹ 559 more rows
…
``` r
# Mutate() cancer_sample for new columns 'perimeter_vs_texture' and 'symmetry_vs_concavity', select() columns, filter() observations.

  cancer_explore <- cancer_sample %>%
    mutate(perimeter_vs_texture = perimeter_mean / texture_mean,
    symmetry_vs_concavity = symmetry_mean / concavity_mean) %>%
    select(ID, diagnosis, perimeter_vs_texture, symmetry_vs_concavity) %>%
    filter(ID > 800000 & ID < 900000)
   
    # Printing the first 10 rows of cancer_explore
  print(cancer_explore, n = 10)
```

    ## # A tibble: 209 × 4
    ##        ID diagnosis perimeter_vs_texture symmetry_vs_concavity
    ##     <dbl> <chr>                    <dbl>                 <dbl>
    ##  1 842302 M                        11.8                  0.806
    ##  2 842517 M                         7.48                 2.09 
    ##  3 843786 M                         5.26                 1.32 
    ##  4 844359 M                         5.99                 1.59 
    ##  5 844981 M                         4.01                 1.26 
    ##  6 845636 M                         4.42                 4.63 
    ##  7 846226 M                         5.34                 1.16 
    ##  8 846381 M                         4.33                 1.86 
    ##  9 848406 M                         4.71                 2.14 
    ## 10 849014 M                         5.87                 1.07 
    ## # ℹ 199 more rows
…
